PWD /home/server/tikz-animation
INPUT /etc/texmf/web2c/texmf.cnf
INPUT /usr/share/texmf/web2c/texmf.cnf
INPUT /usr/share/texlive/texmf-dist/web2c/texmf.cnf
INPUT /var/lib/texmf/web2c/pdftex/pdflatex.fmt
OUTPUT tmp/integration_graph.aux
INPUT integration_graph.tex
INPUT integration_graph.tex
OUTPUT tmp/integration_graph_2.log
INPUT /usr/share/texlive/texmf-dist/tex/latex/base/article.cls
INPUT /usr/share/texlive/texmf-dist/tex/latex/base/article.cls
INPUT /usr/share/texlive/texmf-dist/tex/latex/base/size10.clo
INPUT /usr/share/texlive/texmf-dist/tex/latex/base/size10.clo
INPUT /usr/share/texlive/texmf-dist/tex/latex/base/inputenc.sty
INPUT /usr/share/texlive/texmf-dist/tex/latex/base/inputenc.sty
INPUT /usr/share/texlive/texmf-dist/tex/latex/base/utf8.def
INPUT /usr/share/texlive/texmf-dist/tex/latex/base/utf8.def
INPUT /usr/share/texlive/texmf-dist/tex/latex/base/t1enc.dfu
INPUT /usr/share/texlive/texmf-dist/tex/latex/base/t1enc.dfu
INPUT /usr/share/texlive/texmf-dist/tex/latex/base/ot1enc.dfu
INPUT /usr/share/texlive/texmf-dist/tex/latex/base/ot1enc.dfu
INPUT /usr/share/texlive/texmf-dist/tex/latex/base/omsenc.dfu
INPUT /usr/share/texlive/texmf-dist/tex/latex/base/omsenc.dfu
INPUT /home/server/texmf/tex/latex/pgf/frontendlayer/tikz.sty
INPUT /home/server/texmf/tex/latex/pgf/frontendlayer/tikz.sty
INPUT /home/server/texmf/tex/latex/pgf/basiclayer/pgf.sty
INPUT /home/server/texmf/tex/latex/pgf/basiclayer/pgf.sty
INPUT /home/server/texmf/tex/latex/pgf/utilities/pgfrcs.sty
INPUT /home/server/texmf/tex/latex/pgf/utilities/pgfrcs.sty
INPUT /home/server/texmf/tex/generic/pgf/utilities/pgfutil-common.tex
INPUT /home/server/texmf/tex/generic/pgf/utilities/pgfutil-common-lists.tex
INPUT /home/server/texmf/tex/generic/pgf/utilities/pgfutil-latex.def
INPUT /usr/share/texlive/texmf-dist/tex/latex/ms/everyshi.sty
INPUT /usr/share/texlive/texmf-dist/tex/latex/ms/everyshi.sty
INPUT /home/server/texmf/tex/generic/pgf/utilities/pgfrcs.code.tex
INPUT /home/server/texmf/tex/generic/pgf/utilities/pgfrcs.code.tex
INPUT /home/server/texmf/tex/latex/pgf/basiclayer/pgfcore.sty
INPUT /home/server/texmf/tex/latex/pgf/basiclayer/pgfcore.sty
INPUT /usr/share/texlive/texmf-dist/tex/latex/graphics/graphicx.sty
INPUT /usr/share/texlive/texmf-dist/tex/latex/graphics/graphicx.sty
INPUT /usr/share/texlive/texmf-dist/tex/latex/graphics/keyval.sty
INPUT /usr/share/texlive/texmf-dist/tex/latex/graphics/keyval.sty
INPUT /usr/share/texlive/texmf-dist/tex/latex/graphics/graphics.sty
INPUT /usr/share/texlive/texmf-dist/tex/latex/graphics/graphics.sty
INPUT /usr/share/texlive/texmf-dist/tex/latex/graphics/trig.sty
INPUT /usr/share/texlive/texmf-dist/tex/latex/graphics/trig.sty
INPUT /usr/share/texlive/texmf-dist/tex/latex/graphics-cfg/graphics.cfg
INPUT /usr/share/texlive/texmf-dist/tex/latex/graphics-cfg/graphics.cfg
INPUT /usr/share/texlive/texmf-dist/tex/latex/graphics-def/pdftex.def
INPUT /usr/share/texlive/texmf-dist/tex/latex/graphics-def/pdftex.def
INPUT /home/server/texmf/tex/latex/pgf/systemlayer/pgfsys.sty
INPUT /home/server/texmf/tex/latex/pgf/systemlayer/pgfsys.sty
INPUT /home/server/texmf/tex/generic/pgf/systemlayer/pgfsys.code.tex
INPUT /home/server/texmf/tex/generic/pgf/systemlayer/pgfsys.code.tex
INPUT /home/server/texmf/tex/generic/pgf/utilities/pgfkeys.code.tex
INPUT /home/server/texmf/tex/generic/pgf/utilities/pgfkeysfiltered.code.tex
INPUT /home/server/texmf/tex/generic/pgf/systemlayer/pgf.cfg
INPUT /home/server/texmf/tex/generic/pgf/systemlayer/pgfsys-pdftex.def
INPUT /home/server/texmf/tex/generic/pgf/systemlayer/pgfsys-pdftex.def
INPUT /home/server/texmf/tex/generic/pgf/systemlayer/pgfsys-common-pdf.def
INPUT /home/server/texmf/tex/generic/pgf/systemlayer/pgfsyssoftpath.code.tex
INPUT /home/server/texmf/tex/generic/pgf/systemlayer/pgfsyssoftpath.code.tex
INPUT /home/server/texmf/tex/generic/pgf/systemlayer/pgfsysprotocol.code.tex
INPUT /home/server/texmf/tex/generic/pgf/systemlayer/pgfsysprotocol.code.tex
INPUT /usr/share/texlive/texmf-dist/tex/latex/xcolor/xcolor.sty
INPUT /usr/share/texlive/texmf-dist/tex/latex/xcolor/xcolor.sty
INPUT /usr/share/texlive/texmf-dist/tex/latex/graphics-cfg/color.cfg
INPUT /usr/share/texlive/texmf-dist/tex/latex/graphics-cfg/color.cfg
INPUT /home/server/texmf/tex/generic/pgf/basiclayer/pgfcore.code.tex
INPUT /home/server/texmf/tex/generic/pgf/basiclayer/pgfcore.code.tex
INPUT /home/server/texmf/tex/generic/pgf/math/pgfmath.code.tex
INPUT /home/server/texmf/tex/generic/pgf/math/pgfmathcalc.code.tex
INPUT /home/server/texmf/tex/generic/pgf/math/pgfmathutil.code.tex
INPUT /home/server/texmf/tex/generic/pgf/math/pgfmathparser.code.tex
INPUT /home/server/texmf/tex/generic/pgf/math/pgfmathfunctions.code.tex
INPUT /home/server/texmf/tex/generic/pgf/math/pgfmathfunctions.basic.code.tex
INPUT /home/server/texmf/tex/generic/pgf/math/pgfmathfunctions.trigonometric.code.tex
INPUT /home/server/texmf/tex/generic/pgf/math/pgfmathfunctions.random.code.tex
INPUT /home/server/texmf/tex/generic/pgf/math/pgfmathfunctions.comparison.code.tex
INPUT /home/server/texmf/tex/generic/pgf/math/pgfmathfunctions.base.code.tex
INPUT /home/server/texmf/tex/generic/pgf/math/pgfmathfunctions.round.code.tex
INPUT /home/server/texmf/tex/generic/pgf/math/pgfmathfunctions.misc.code.tex
INPUT /home/server/texmf/tex/generic/pgf/math/pgfmathfunctions.integerarithmetics.code.tex
INPUT /home/server/texmf/tex/generic/pgf/math/pgfmathfloat.code.tex
INPUT /home/server/texmf/tex/generic/pgf/basiclayer/pgfcorepoints.code.tex
INPUT /home/server/texmf/tex/generic/pgf/basiclayer/pgfcorepathconstruct.code.tex
INPUT /home/server/texmf/tex/generic/pgf/basiclayer/pgfcorepathusage.code.tex
INPUT /home/server/texmf/tex/generic/pgf/basiclayer/pgfcorescopes.code.tex
INPUT /home/server/texmf/tex/generic/pgf/basiclayer/pgfcoregraphicstate.code.tex
INPUT /home/server/texmf/tex/generic/pgf/basiclayer/pgfcoretransformations.code.tex
INPUT /home/server/texmf/tex/generic/pgf/basiclayer/pgfcorequick.code.tex
INPUT /home/server/texmf/tex/generic/pgf/basiclayer/pgfcoreobjects.code.tex
INPUT /home/server/texmf/tex/generic/pgf/basiclayer/pgfcorepathprocessing.code.tex
INPUT /home/server/texmf/tex/generic/pgf/basiclayer/pgfcorearrows.code.tex
INPUT /home/server/texmf/tex/generic/pgf/basiclayer/pgfcoreshade.code.tex
INPUT /home/server/texmf/tex/generic/pgf/basiclayer/pgfcoreimage.code.tex
INPUT /home/server/texmf/tex/generic/pgf/basiclayer/pgfcoreexternal.code.tex
INPUT /home/server/texmf/tex/generic/pgf/basiclayer/pgfcorelayers.code.tex
INPUT /home/server/texmf/tex/generic/pgf/basiclayer/pgfcoretransparency.code.tex
INPUT /home/server/texmf/tex/generic/pgf/basiclayer/pgfcorepatterns.code.tex
INPUT /home/server/texmf/tex/generic/pgf/modules/pgfmoduleshapes.code.tex
INPUT /home/server/texmf/tex/generic/pgf/modules/pgfmoduleplot.code.tex
INPUT /home/server/texmf/tex/latex/pgf/compatibility/pgfcomp-version-0-65.sty
INPUT /home/server/texmf/tex/latex/pgf/compatibility/pgfcomp-version-0-65.sty
INPUT /home/server/texmf/tex/latex/pgf/compatibility/pgfcomp-version-1-18.sty
INPUT /home/server/texmf/tex/latex/pgf/compatibility/pgfcomp-version-1-18.sty
INPUT /home/server/texmf/tex/latex/pgf/utilities/pgffor.sty
INPUT /home/server/texmf/tex/latex/pgf/utilities/pgffor.sty
INPUT /home/server/texmf/tex/latex/pgf/utilities/pgfkeys.sty
INPUT /home/server/texmf/tex/latex/pgf/utilities/pgfkeys.sty
INPUT /home/server/texmf/tex/generic/pgf/utilities/pgfkeys.code.tex
INPUT /home/server/texmf/tex/generic/pgf/utilities/pgfkeys.code.tex
INPUT /home/server/texmf/tex/latex/pgf/math/pgfmath.sty
INPUT /home/server/texmf/tex/latex/pgf/math/pgfmath.sty
INPUT /home/server/texmf/tex/generic/pgf/math/pgfmath.code.tex
INPUT /home/server/texmf/tex/generic/pgf/math/pgfmath.code.tex
INPUT /home/server/texmf/tex/generic/pgf/utilities/pgffor.code.tex
INPUT /home/server/texmf/tex/generic/pgf/utilities/pgffor.code.tex
INPUT /home/server/texmf/tex/generic/pgf/math/pgfmath.code.tex
INPUT /home/server/texmf/tex/generic/pgf/frontendlayer/tikz/tikz.code.tex
INPUT /home/server/texmf/tex/generic/pgf/frontendlayer/tikz/tikz.code.tex
INPUT /home/server/texmf/tex/generic/pgf/libraries/pgflibraryplothandlers.code.tex
INPUT /home/server/texmf/tex/generic/pgf/libraries/pgflibraryplothandlers.code.tex
INPUT /home/server/texmf/tex/generic/pgf/modules/pgfmodulematrix.code.tex
INPUT /home/server/texmf/tex/generic/pgf/frontendlayer/tikz/libraries/tikzlibrarytopaths.code.tex
INPUT /home/server/texmf/tex/generic/pgf/frontendlayer/tikz/libraries/tikzlibrarytopaths.code.tex
INPUT /home/server/texmf/tex/latex/pgfplots/pgfplots.sty
INPUT /home/server/texmf/tex/latex/pgfplots/pgfplots.sty
INPUT /home/server/texmf/tex/generic/pgfplots/pgfplots.revision.tex
INPUT /home/server/texmf/tex/generic/pgfplots/pgfplots.revision.tex
INPUT /home/server/texmf/tex/generic/pgf/systemlayer/pgfsys-luatex.def
INPUT /home/server/texmf/tex/generic/pgfplots/pgfplots.code.tex
INPUT /home/server/texmf/tex/generic/pgfplots/pgfplotscore.code.tex
INPUT /home/server/texmf/tex/generic/pgfplots/sys/pgfplotssysgeneric.code.tex
INPUT /home/server/texmf/tex/generic/pgfplots/libs/pgfplotslibrary.code.tex
INPUT /home/server/texmf/tex/generic/pgfplots/oldpgfcompatib/pgfplotsoldpgfsupp_loader.code.tex
INPUT /home/server/texmf/tex/generic/pgf/libraries/pgflibraryfpu.code.tex
INPUT /home/server/texmf/tex/generic/pgf/libraries/pgflibraryfpu.code.tex
INPUT /home/server/texmf/tex/generic/pgf/libraries/pgflibraryfpu.code.tex
INPUT /home/server/texmf/tex/generic/pgfplots/oldpgfcompatib/pgfplotsoldpgfsupp_pgflibraryfpu.code.tex
INPUT /home/server/texmf/tex/generic/pgfplots/oldpgfcompatib/pgfplotsoldpgfsupp_pgfmathfloat.code.tex
INPUT /home/server/texmf/tex/generic/pgfplots/util/pgfplotsutil.code.tex
INPUT /home/server/texmf/tex/generic/pgfplots/liststructure/pgfplotsliststructure.code.tex
INPUT /home/server/texmf/tex/generic/pgfplots/liststructure/pgfplotsliststructureext.code.tex
INPUT /home/server/texmf/tex/generic/pgfplots/liststructure/pgfplotsarray.code.tex
INPUT /home/server/texmf/tex/generic/pgfplots/liststructure/pgfplotsmatrix.code.tex
INPUT /home/server/texmf/tex/generic/pgfplots/numtable/pgfplotstableshared.code.tex
INPUT /home/server/texmf/tex/generic/pgfplots/liststructure/pgfplotsdeque.code.tex
INPUT /home/server/texmf/tex/generic/pgfplots/util/pgfplotsbinary.code.tex
INPUT /home/server/texmf/tex/generic/pgfplots/util/pgfplotsbinary.data.code.tex
INPUT /home/server/texmf/tex/generic/pgfplots/util/pgfplotsutil.verb.code.tex
INPUT /home/server/texmf/tex/generic/pgfplots/libs/pgflibrarypgfplots.surfshading.code.tex
INPUT /home/server/texmf/tex/generic/pgfplots/sys/pgflibrarypgfplots.surfshading.pgfsys-pdftex.def
INPUT /home/server/texmf/tex/generic/pgfplots/sys/pgflibrarypgfplots.surfshading.pgfsys-pdftex.def
INPUT /home/server/texmf/tex/generic/pgfplots/util/pgfplotscolormap.code.tex
INPUT /home/server/texmf/tex/generic/pgfplots/util/pgfplotscolor.code.tex
INPUT /home/server/texmf/tex/generic/pgfplots/pgfplotsstackedplots.code.tex
INPUT /home/server/texmf/tex/generic/pgfplots/pgfplotsplothandlers.code.tex
INPUT /home/server/texmf/tex/generic/pgfplots/pgfplotsmeshplothandler.code.tex
INPUT /home/server/texmf/tex/generic/pgfplots/pgfplotsmeshplotimage.code.tex
INPUT /home/server/texmf/tex/generic/pgfplots/pgfplots.scaling.code.tex
INPUT /home/server/texmf/tex/generic/pgfplots/pgfplotscoordprocessing.code.tex
INPUT /home/server/texmf/tex/generic/pgfplots/pgfplots.errorbars.code.tex
INPUT /home/server/texmf/tex/generic/pgfplots/pgfplots.markers.code.tex
INPUT /home/server/texmf/tex/generic/pgfplots/pgfplotsticks.code.tex
INPUT /home/server/texmf/tex/generic/pgfplots/pgfplots.paths.code.tex
INPUT /home/server/texmf/tex/generic/pgf/frontendlayer/tikz/libraries/tikzlibrarydecorations.code.tex
INPUT /home/server/texmf/tex/generic/pgf/frontendlayer/tikz/libraries/tikzlibrarydecorations.code.tex
INPUT /home/server/texmf/tex/generic/pgf/modules/pgfmoduledecorations.code.tex
INPUT /home/server/texmf/tex/generic/pgf/frontendlayer/tikz/libraries/tikzlibrarydecorations.pathmorphing.code.tex
INPUT /home/server/texmf/tex/generic/pgf/frontendlayer/tikz/libraries/tikzlibrarydecorations.pathmorphing.code.tex
INPUT /home/server/texmf/tex/generic/pgf/libraries/decorations/pgflibrarydecorations.pathmorphing.code.tex
INPUT /home/server/texmf/tex/generic/pgf/libraries/decorations/pgflibrarydecorations.pathmorphing.code.tex
INPUT /home/server/texmf/tex/generic/pgf/frontendlayer/tikz/libraries/tikzlibrarydecorations.pathreplacing.code.tex
INPUT /home/server/texmf/tex/generic/pgf/frontendlayer/tikz/libraries/tikzlibrarydecorations.pathreplacing.code.tex
INPUT /home/server/texmf/tex/generic/pgf/libraries/decorations/pgflibrarydecorations.pathreplacing.code.tex
INPUT /home/server/texmf/tex/generic/pgf/libraries/decorations/pgflibrarydecorations.pathreplacing.code.tex
INPUT /home/server/texmf/tex/generic/pgf/frontendlayer/tikz/libraries/tikzlibraryplotmarks.code.tex
INPUT /home/server/texmf/tex/generic/pgf/frontendlayer/tikz/libraries/tikzlibraryplotmarks.code.tex
INPUT /home/server/texmf/tex/generic/pgf/libraries/pgflibraryplotmarks.code.tex
INPUT /home/server/texmf/tex/generic/pgf/libraries/pgflibraryplotmarks.code.tex
INPUT /home/server/texmf/tex/latex/mdframed/mdframed.sty
INPUT /home/server/texmf/tex/latex/mdframed/mdframed.sty
INPUT /usr/share/texlive/texmf-dist/tex/latex/oberdiek/kvoptions.sty
INPUT /usr/share/texlive/texmf-dist/tex/latex/oberdiek/kvoptions.sty
INPUT /usr/share/texlive/texmf-dist/tex/generic/oberdiek/ltxcmds.sty
INPUT /usr/share/texlive/texmf-dist/tex/generic/oberdiek/ltxcmds.sty
INPUT /usr/share/texlive/texmf-dist/tex/generic/oberdiek/kvsetkeys.sty
INPUT /usr/share/texlive/texmf-dist/tex/generic/oberdiek/kvsetkeys.sty
INPUT /usr/share/texlive/texmf-dist/tex/generic/oberdiek/infwarerr.sty
INPUT /usr/share/texlive/texmf-dist/tex/generic/oberdiek/infwarerr.sty
INPUT /usr/share/texlive/texmf-dist/tex/generic/oberdiek/etexcmds.sty
INPUT /usr/share/texlive/texmf-dist/tex/generic/oberdiek/etexcmds.sty
INPUT /usr/share/texlive/texmf-dist/tex/generic/oberdiek/ifluatex.sty
INPUT /usr/share/texlive/texmf-dist/tex/generic/oberdiek/ifluatex.sty
INPUT /usr/share/texlive/texmf-dist/tex/latex/l3packages/xparse/xparse.sty
INPUT /usr/share/texlive/texmf-dist/tex/latex/l3packages/xparse/xparse.sty
INPUT /usr/share/texlive/texmf-dist/tex/latex/l3kernel/expl3.sty
INPUT /usr/share/texlive/texmf-dist/tex/latex/l3kernel/expl3.sty
INPUT /usr/share/texlive/texmf-dist/tex/latex/l3kernel/expl3-code.tex
INPUT /usr/share/texlive/texmf-dist/tex/latex/l3kernel/expl3-code.tex
INPUT /usr/share/texlive/texmf-dist/tex/generic/unicode-data/UnicodeData.txt
INPUT /usr/share/texlive/texmf-dist/tex/generic/unicode-data/CaseFolding.txt
INPUT /usr/share/texlive/texmf-dist/tex/generic/unicode-data/SpecialCasing.txt
INPUT /usr/share/texlive/texmf-dist/fonts/tfm/public/cm/cmr10.tfm
INPUT /usr/share/texlive/texmf-dist/fonts/tfm/public/cm/cmr10.tfm
INPUT /usr/share/texlive/texmf-dist/fonts/tfm/public/cm/cmr10.tfm
INPUT /usr/share/texlive/texmf-dist/fonts/tfm/public/cm/cmr10.tfm
INPUT /usr/share/texlive/texmf-dist/fonts/tfm/public/cm/cmr10.tfm
INPUT /usr/share/texlive/texmf-dist/fonts/tfm/public/cm/cmr10.tfm
INPUT /usr/share/texlive/texmf-dist/fonts/tfm/public/cm/cmr10.tfm
INPUT /usr/share/texlive/texmf-dist/fonts/tfm/public/cm/cmr10.tfm
INPUT /usr/share/texlive/texmf-dist/tex/latex/l3kernel/l3pdfmode.def
INPUT /usr/share/texlive/texmf-dist/tex/latex/l3kernel/l3pdfmode.def
INPUT /usr/share/texlive/texmf-dist/tex/latex/etoolbox/etoolbox.sty
INPUT /usr/share/texlive/texmf-dist/tex/latex/etoolbox/etoolbox.sty
INPUT /usr/share/texlive/texmf-dist/tex/latex/oberdiek/zref-abspage.sty
INPUT /usr/share/texlive/texmf-dist/tex/latex/oberdiek/zref-abspage.sty
INPUT /usr/share/texlive/texmf-dist/tex/latex/oberdiek/zref-base.sty
INPUT /usr/share/texlive/texmf-dist/tex/latex/oberdiek/zref-base.sty
INPUT /usr/share/texlive/texmf-dist/tex/generic/oberdiek/kvdefinekeys.sty
INPUT /usr/share/texlive/texmf-dist/tex/generic/oberdiek/kvdefinekeys.sty
INPUT /usr/share/texlive/texmf-dist/tex/generic/oberdiek/pdftexcmds.sty
INPUT /usr/share/texlive/texmf-dist/tex/generic/oberdiek/pdftexcmds.sty
INPUT /usr/share/texlive/texmf-dist/tex/generic/oberdiek/ifpdf.sty
INPUT /usr/share/texlive/texmf-dist/tex/generic/oberdiek/ifpdf.sty
INPUT /usr/share/texlive/texmf-dist/tex/latex/oberdiek/auxhook.sty
INPUT /usr/share/texlive/texmf-dist/tex/latex/oberdiek/auxhook.sty
INPUT /usr/share/texlive/texmf-dist/tex/generic/oberdiek/atbegshi.sty
INPUT /usr/share/texlive/texmf-dist/tex/generic/oberdiek/atbegshi.sty
INPUT /home/server/texmf/tex/latex/needspace/needspace.sty
INPUT /home/server/texmf/tex/latex/needspace/needspace.sty
INPUT /home/server/texmf/tex/latex/mdframed/md-frame-0.mdf
INPUT /home/server/texmf/tex/latex/mdframed/md-frame-0.mdf
INPUT /home/server/texmf/tex/generic/pgf/frontendlayer/tikz/libraries/tikzlibrarybackgrounds.code.tex
INPUT /home/server/texmf/tex/generic/pgf/frontendlayer/tikz/libraries/tikzlibrarybackgrounds.code.tex
INPUT tmp/integration_graph_2.aux
INPUT tmp/integration_graph_2.aux
OUTPUT tmp/integration_graph_2.aux
INPUT /usr/share/texlive/texmf-dist/tex/context/base/mkii/supp-pdf.mkii
INPUT /usr/share/texlive/texmf-dist/tex/context/base/mkii/supp-pdf.mkii
INPUT /usr/share/texlive/texmf-dist/tex/latex/oberdiek/epstopdf-base.sty
INPUT /usr/share/texlive/texmf-dist/tex/latex/oberdiek/epstopdf-base.sty
INPUT /usr/share/texlive/texmf-dist/tex/latex/oberdiek/grfext.sty
INPUT /usr/share/texlive/texmf-dist/tex/latex/oberdiek/grfext.sty
INPUT /usr/share/texlive/texmf-dist/tex/latex/latexconfig/epstopdf-sys.cfg
INPUT /usr/share/texlive/texmf-dist/tex/latex/latexconfig/epstopdf-sys.cfg
OUTPUT tmp/integration_graph_2.pdf
INPUT /var/lib/texmf/fonts/map/pdftex/updmap/pdftex.map
INPUT tmp/integration_graph_2.aux
INPUT /usr/share/texlive/texmf-dist/fonts/type1/public/amsfonts/cm/cmex10.pfb
INPUT /usr/share/texlive/texmf-dist/fonts/type1/public/amsfonts/cm/cmmi10.pfb
INPUT /usr/share/texlive/texmf-dist/fonts/type1/public/amsfonts/cm/cmmi7.pfb
INPUT /usr/share/texlive/texmf-dist/fonts/type1/public/amsfonts/cm/cmr10.pfb
INPUT /usr/share/texlive/texmf-dist/fonts/type1/public/amsfonts/cm/cmr7.pfb
INPUT /usr/share/texlive/texmf-dist/fonts/type1/public/amsfonts/cm/cmsy10.pfb
INPUT /usr/share/texlive/texmf-dist/fonts/type1/public/amsfonts/cm/cmsy7.pfb
